{
  "translations": [
    { "id": 1, "translated": "辉源供应链是一家以物流为平台服务企业，致力于集物流"},
    { "id": 2, "translated": "我们的团队超赞，大家工作的时候是战斗机，工作之外是一家人"},
    { "id": 3, "translated": "题，哪怕每一天累的手脚发麻；但在我们的团队里，不喜欢八卦争斗，哪怕我们偶尔闲暇的时候。我们要用未来5年的时间做一件值得我们和所有人自豪的我们有着自己的价值观，同样，我们也渴求与我们有同样价值观的小伙伴们加入团队，用3～5年不长的时间，一起做一件足以让我们骄傲一生的事业。在我们的团队里，现在没有层级与所谓的领导。我们相信你的智慧和执行能力，只要你愿意倾力以赴，我们就可以给你提供自由发挥的舞台；我们尊重每一个人的创造力和灵性，只要你与我们有着共同的理想并将此当作一份事业，你就能与我们同行；在我们的团队里，每一个人都有机会，只要你真的用了心。我们绝不是一个论资排辈的公司，我们的团队中曾经有同事以文员入职，并用了8个月的时间经历文员、商业合作、内部KIP制定、服务管理四个模块的锻炼迅速成长为公司的合伙人。所以，这里更适合一心与我们同行做事业的伙伴，并不是每一个公司都能将事业成长的乐趣分享给每一个携手同行的人。"}
  ],
  "comments": [
    { "id": 1, "body": "some comment", "postId": 1 }
  ],
  "profile": { "name": "typicode" }
}
